{ "height":13,
 "layers":[
        {
         "data":[0, 0, 0, 0, 0, 0, 0, 0, 0, 0, 0, 0, 0, 0, 0, 0, 0, 0, 0, 0, 0, 0, 0, 0, 1131, 1132, 1133, 0, 0, 0, 0, 0, 0, 0, 0, 0, 0, 0, 0, 0, 0, 0, 0, 0, 0, 0, 0, 0, 0, 0, 0, 0, 0, 0, 0, 0, 0, 0, 0, 0, 890, 891, 892, 0, 0, 0, 0, 0, 0, 0, 0, 0, 0, 0, 0, 0, 0, 0, 0, 0, 931, 932, 933, 0, 0, 0, 0, 0, 0, 0, 0, 0, 0, 0, 0, 0, 0, 0, 0, 0, 972, 973, 974, 0, 0, 0, 0, 0, 0, 0, 0, 0, 0, 0, 0, 0, 0, 0, 0, 0, 0, 0, 0, 0, 0, 0, 0, 0, 0, 0, 0, 0, 0, 876, 877, 878, 0, 0, 0, 0, 0, 0, 0, 0, 0, 0, 0, 0, 0, 0, 0, 0, 0, 917, 918, 919, 0, 0, 0, 0, 0, 0, 0, 0, 0, 0, 0, 0, 0, 0, 0, 0, 0, 0, 0, 0, 0, 0, 0, 0, 0, 0, 0, 0, 0, 0, 0, 0, 0, 0, 0, 0, 0, 0, 0, 0, 0, 0, 0, 0, 0, 0, 0, 0, 0, 0, 0, 0, 0, 0, 0, 0, 0, 0, 0, 0, 0, 0, 0, 0, 0, 0, 0, 0, 0, 0, 0, 0, 0, 0, 0, 0, 0, 0, 0, 0, 0, 0, 0, 0, 0, 0, 0, 0, 0, 0, 0, 0, 0, 0, 0, 0, 0, 0, 0, 0, 0, 0, 0, 0],
         "height":13,
         "name":"background elements 2",
         "opacity":0.939999997615814,
         "properties":
            {
             "collide":"false",
             "display":"true"
            },
         "propertytypes":
            {
             "collide":"string",
             "display":"string"
            },
         "type":"tilelayer",
         "visible":true,
         "width":20,
         "x":0,
         "y":0
        }, 
        {
         "data":[0, 0, 0, 0, 0, 0, 0, 0, 0, 0, 0, 0, 0, 0, 0, 0, 0, 0, 0, 0, 0, 185, 209, 210, 211, 212, 209, 210, 211, 212, 209, 210, 211, 212, 209, 210, 211, 212, 130, 0, 185, 0, 0, 0, 0, 0, 0, 0, 0, 0, 0, 0, 0, 0, 0, 0, 0, 0, 51, 0, 185, 0, 0, 0, 0, 0, 0, 0, 0, 0, 0, 0, 0, 0, 0, 0, 0, 0, 92, 0, 46, 47, 48, 49, 50, 429, 430, 431, 432, 0, 0, 0, 0, 0, 0, 0, 0, 0, 133, 0, 0, 52, 467, 468, 469, 470, 471, 472, 473, 0, 0, 0, 0, 0, 0, 0, 0, 0, 174, 0, 0, 93, 508, 509, 510, 511, 512, 513, 514, 0, 0, 0, 0, 0, 0, 0, 0, 0, 51, 0, 0, 134, 549, 550, 551, 552, 553, 554, 555, 0, 0, 0, 0, 0, 0, 0, 0, 0, 92, 0, 0, 175, 590, 591, 592, 593, 594, 595, 596, 0, 0, 0, 782, 783, 784, 0, 0, 0, 133, 0, 0, 52, 631, 632, 633, 634, 635, 636, 637, 0, 0, 0, 823, 824, 825, 0, 0, 0, 51, 0, 0, 93, 672, 673, 674, 675, 676, 677, 678, 0, 0, 0, 864, 865, 866, 0, 0, 0, 92, 0, 0, 134, 713, 714, 715, 716, 717, 718, 719, 0, 0, 0, 905, 906, 907, 0, 0, 0, 133, 0, 0, 175, 0, 0, 0, 0, 0, 0, 0, 0, 0, 0, 0, 0, 0, 0, 0, 0, 174, 0],
         "height":13,
         "name":"background elements",
         "opacity":1,
         "properties":
            {
             "collide":"false",
             "display":"true"
            },
         "propertytypes":
            {
             "collide":"string",
             "display":"string"
            },
         "type":"tilelayer",
         "visible":true,
         "width":20,
         "x":0,
         "y":0
        }, 
        {
         "data":[191, 192, 193, 194, 195, 196, 185, 186, 187, 188, 189, 190, 191, 192, 193, 194, 195, 196, 187, 188, 188, 0, 0, 0, 0, 0, 0, 0, 0, 0, 0, 0, 0, 0, 0, 0, 0, 0, 0, 185, 991, 992, 993, 0, 0, 0, 0, 0, 0, 0, 0, 0, 0, 0, 0, 0, 0, 0, 0, 189, 1032, 1033, 1034, 0, 0, 0, 0, 0, 0, 0, 0, 0, 0, 0, 0, 0, 0, 0, 0, 187, 1073, 1074, 1075, 49, 50, 0, 0, 0, 0, 43, 44, 45, 49, 50, 0, 0, 0, 0, 0, 189, 189, 88, 89, 90, 91, 0, 0, 0, 0, 84, 85, 86, 90, 91, 0, 0, 0, 0, 0, 185, 187, 129, 130, 131, 132, 0, 0, 0, 0, 125, 126, 127, 131, 132, 0, 0, 0, 0, 0, 189, 189, 0, 0, 0, 0, 0, 0, 0, 0, 0, 0, 0, 43, 44, 49, 50, 0, 0, 0, 187, 195, 0, 0, 0, 0, 0, 0, 0, 0, 0, 0, 0, 84, 85, 90, 91, 0, 43, 44, 189, 196, 0, 0, 0, 0, 0, 0, 0, 0, 0, 0, 0, 125, 126, 131, 132, 0, 84, 85, 195, 190, 0, 0, 0, 0, 0, 0, 0, 0, 0, 0, 0, 0, 0, 0, 0, 0, 125, 126, 196, 189, 248, 249, 250, 251, 252, 253, 254, 255, 256, 257, 258, 274, 275, 276, 277, 278, 279, 280, 190, 187, 289, 290, 291, 292, 293, 294, 295, 296, 297, 298, 299, 315, 316, 317, 318, 319, 320, 321, 189],
         "height":13,
         "name":"ground",
         "opacity":1,
         "properties":
            {
             "display":"true",
             "terrain":"ground"
            },
         "propertytypes":
            {
             "display":"string",
             "terrain":"string"
            },
         "type":"tilelayer",
         "visible":true,
         "width":20,
         "x":0,
         "y":0
        }, 
        {
         "data":[0, 0, 0, 0, 0, 0, 0, 0, 0, 0, 0, 0, 0, 0, 0, 0, 0, 0, 0, 0, 0, 0, 0, 0, 0, 0, 0, 0, 0, 0, 0, 0, 0, 0, 0, 0, 0, 0, 0, 0, 0, 0, 0, 0, 0, 0, 0, 0, 0, 0, 0, 0, 0, 0, 0, 0, 0, 0, 0, 0, 446, 447, 448, 0, 0, 0, 0, 0, 0, 0, 0, 0, 0, 0, 0, 0, 0, 0, 0, 0, 890, 891, 0, 0, 0, 0, 0, 0, 0, 43, 44, 48, 49, 50, 0, 0, 0, 0, 0, 782, 0, 0, 0, 0, 0, 0, 0, 0, 0, 0, 0, 0, 0, 0, 0, 0, 0, 0, 0, 823, 0, 0, 0, 0, 0, 0, 0, 0, 0, 0, 0, 0, 0, 0, 0, 0, 0, 0, 0, 864, 0, 0, 0, 0, 0, 0, 0, 0, 0, 0, 0, 0, 43, 44, 49, 50, 0, 0, 0, 905, 0, 0, 0, 0, 0, 0, 0, 0, 0, 0, 0, 0, 0, 0, 0, 0, 0, 43, 44, 0, 0, 0, 0, 0, 0, 0, 0, 0, 0, 0, 0, 0, 0, 0, 0, 0, 0, 0, 0, 0, 0, 0, 0, 0, 0, 0, 0, 0, 0, 0, 0, 0, 0, 0, 0, 0, 0, 0, 0, 0, 0, 0, 0, 0, 0, 0, 0, 0, 0, 0, 0, 0, 0, 0, 0, 0, 0, 0, 0, 0, 0, 0, 0, 0, 0, 0, 0, 0, 0, 0, 0, 0, 0, 0, 0, 0, 0, 0, 0, 0],
         "height":13,
         "name":"groundElements 3",
         "opacity":1,
         "properties":
            {
             "display":"true",
             "top":"true"
            },
         "propertytypes":
            {
             "display":"string",
             "top":"string"
            },
         "type":"tilelayer",
         "visible":true,
         "width":20,
         "x":0,
         "y":0
        }, 
        {
         "data":[0, 0, 0, 0, 0, 0, 0, 0, 0, 0, 0, 0, 0, 0, 0, 0, 0, 0, 0, 0, 0, 0, 0, 0, 0, 0, 0, 0, 0, 0, 0, 0, 0, 0, 0, 0, 0, 0, 0, 0, 1155, 1156, 1157, 0, 0, 0, 0, 0, 0, 0, 0, 0, 0, 0, 0, 0, 0, 0, 0, 0, 1196, 1197, 1198, 0, 0, 0, 0, 0, 0, 0, 0, 0, 0, 0, 0, 0, 0, 0, 0, 0, 1237, 1238, 1239, 0, 0, 0, 0, 0, 0, 0, 0, 0, 0, 0, 0, 0, 0, 0, 0, 0, 0, 0, 0, 0, 0, 0, 0, 0, 0, 0, 0, 0, 0, 0, 0, 0, 0, 0, 0, 0, 0, 0, 0, 0, 0, 0, 0, 0, 0, 0, 0, 0, 0, 0, 0, 0, 0, 452, 467, 468, 0, 0, 0, 0, 0, 0, 0, 0, 0, 0, 0, 0, 0, 0, 0, 0, 0, 493, 508, 509, 0, 0, 0, 0, 0, 0, 0, 0, 0, 0, 0, 0, 0, 0, 0, 0, 0, 534, 549, 550, 0, 0, 0, 0, 0, 0, 0, 0, 0, 0, 0, 0, 0, 0, 0, 0, 0, 575, 590, 591, 0, 0, 0, 0, 0, 0, 0, 0, 0, 0, 0, 0, 0, 0, 0, 0, 0, 616, 631, 632, 0, 0, 0, 0, 0, 0, 0, 0, 0, 0, 0, 0, 0, 0, 0, 0, 0, 657, 657, 658, 0, 0, 0, 0, 0, 0, 0, 0, 0, 0, 0, 0, 0, 0, 0, 0, 0, 0, 0, 0],
         "height":13,
         "name":"groundElements 2",
         "opacity":1,
         "properties":
            {
             "display":"true",
             "top":"true"
            },
         "propertytypes":
            {
             "display":"string",
             "top":"string"
            },
         "type":"tilelayer",
         "visible":true,
         "width":20,
         "x":0,
         "y":0
        }, 
        {
         "data":[498, 499, 500, 0, 0, 0, 0, 0, 0, 0, 0, 0, 0, 0, 0, 0, 524, 525, 526, 527, 539, 540, 541, 0, 0, 0, 0, 0, 0, 0, 0, 0, 0, 0, 0, 0, 565, 566, 567, 568, 580, 581, 582, 0, 0, 0, 0, 0, 0, 0, 0, 0, 0, 0, 0, 0, 606, 607, 608, 609, 621, 622, 623, 0, 0, 0, 0, 0, 0, 0, 0, 0, 0, 0, 0, 0, 647, 648, 649, 650, 0, 0, 0, 0, 0, 0, 0, 0, 0, 0, 0, 0, 0, 0, 0, 0, 0, 0, 0, 0, 87, 0, 0, 0, 0, 0, 0, 0, 0, 0, 0, 0, 0, 0, 0, 0, 0, 0, 0, 0, 336, 0, 0, 0, 0, 0, 0, 0, 0, 0, 0, 0, 0, 0, 0, 0, 0, 0, 0, 0, 0, 0, 0, 0, 0, 0, 0, 0, 0, 0, 0, 0, 0, 0, 0, 0, 0, 0, 0, 0, 0, 0, 0, 0, 0, 0, 0, 0, 0, 0, 0, 0, 0, 0, 0, 0, 0, 0, 0, 0, 0, 0, 0, 0, 0, 0, 0, 0, 0, 0, 0, 0, 0, 0, 0, 0, 0, 0, 0, 0, 0, 0, 0, 0, 0, 0, 0, 0, 0, 0, 0, 0, 0, 0, 0, 0, 426, 427, 428, 429, 0, 0, 0, 0, 0, 0, 0, 0, 0, 0, 0, 0, 0, 0, 0, 0, 467, 468, 469, 470, 876, 877, 878, 0, 0, 0, 0, 0, 0, 0, 0, 0, 0, 0, 0, 0, 508, 509, 510, 511],
         "height":13,
         "name":"groundElements",
         "opacity":1,
         "properties":
            {
             "display":"true",
             "top":"true"
            },
         "propertytypes":
            {
             "display":"string",
             "top":"string"
            },
         "type":"tilelayer",
         "visible":true,
         "width":20,
         "x":0,
         "y":0
        }, 
        {
         "data":[0, 0, 0, 0, 0, 0, 0, 0, 0, 0, 0, 0, 0, 0, 0, 0, 0, 0, 0, 0, 0, 0, 0, 0, 0, 0, 0, 0, 0, 0, 0, 0, 0, 0, 0, 0, 0, 0, 0, 0, 0, 0, 0, 0, 0, 0, 0, 0, 0, 0, 0, 0, 0, 0, 0, 0, 0, 0, 0, 0, 0, 0, 0, 0, 0, 0, 0, 0, 0, 0, 0, 0, 0, 0, 0, 0, 0, 0, 0, 0, 0, 0, 0, 0, 0, 0, 0, 0, 0, 0, 0, 0, 0, 0, 0, 0, 0, 0, 0, 0, 0, 0, 0, 0, 0, 0, 0, 0, 0, 0, 0, 0, 0, 0, 0, 0, 0, 0, 0, 0, 0, 0, 0, 0, 0, 0, 0, 0, 0, 0, 0, 0, 0, 0, 0, 0, 0, 0, 0, 0, 0, 0, 0, 0, 0, 0, 0, 0, 0, 0, 0, 0, 0, 0, 0, 0, 0, 0, 0, 0, 0, 0, 0, 0, 0, 0, 0, 0, 0, 0, 0, 0, 0, 0, 0, 0, 0, 0, 0, 0, 0, 0, 0, 0, 0, 0, 0, 0, 0, 0, 0, 0, 0, 0, 0, 0, 0, 0, 0, 0, 0, 0, 0, 0, 0, 0, 0, 0, 0, 0, 0, 0, 0, 0, 0, 0, 0, 0, 0, 0, 0, 0, 0, 0, 0, 0, 0, 0, 0, 0, 0, 0, 0, 0, 0, 0, 0, 0, 0, 0, 0, 0, 0, 0, 0, 0, 0, 0, 0, 0, 0, 0, 0, 0, 0, 0, 0, 0, 0, 0],
         "height":13,
         "name":"secretCache",
         "opacity":1,
         "properties":
            {
             "display":"true",
             "top":"true"
            },
         "propertytypes":
            {
             "display":"string",
             "top":"string"
            },
         "type":"tilelayer",
         "visible":true,
         "width":20,
         "x":0,
         "y":0
        }, 
        {
         "draworder":"topdown",
         "height":7,
         "name":"objects",
         "objects":[
                {
                 "gid":1684,
                 "height":96,
                 "id":25,
                 "name":"",
                 "properties":
                    {
                     "direction":"left"
                    },
                 "propertytypes":
                    {
                     "direction":"string"
                    },
                 "rotation":0,
                 "type":"",
                 "visible":true,
                 "width":96,
                 "x":864,
                 "y":1152
                }, 
                {
                 "gid":1683,
                 "height":96,
                 "id":27,
                 "name":"",
                 "properties":
                    {
                     "direction":"left"
                    },
                 "propertytypes":
                    {
                     "direction":"string"
                    },
                 "rotation":0,
                 "type":"",
                 "visible":true,
                 "width":96,
                 "x":768,
                 "y":384
                }, 
                {
                 "gid":1692,
                 "height":96,
                 "id":28,
                 "name":"",
                 "rotation":0,
                 "type":"",
                 "visible":true,
                 "width":96,
                 "x":1056,
                 "y":480
                }, 
                {
                 "gid":1692,
                 "height":96,
                 "id":29,
                 "name":"",
                 "rotation":0,
                 "type":"",
                 "visible":true,
                 "width":96,
                 "x":1728,
                 "y":768
                }, 
                {
                 "gid":1692,
                 "height":96,
                 "id":30,
                 "name":"",
                 "rotation":0,
                 "type":"",
                 "visible":true,
                 "width":96,
                 "x":1440,
                 "y":1152
                }, 
                {
                 "height":286,
                 "id":31,
                 "name":"",
                 "properties":
                    {
                     "sublevel":1,
                     "type":"passage"
                    },
                 "propertytypes":
                    {
                     "sublevel":"int",
                     "type":"string"
                    },
                 "rotation":0,
                 "type":"",
                 "visible":true,
                 "width":102,
                 "x":-2,
                 "y":194
                }, 
                {
                 "gid":1682,
                 "height":96,
                 "id":32,
                 "name":"",
                 "properties":
                    {
                     "from":"1-1"
                    },
                 "propertytypes":
                    {
                     "from":"string"
                    },
                 "rotation":0,
                 "type":"",
                 "visible":true,
                 "width":96,
                 "x":288,
                 "y":480
                }, 
                {
                 "gid":1692,
                 "height":96,
                 "id":34,
                 "name":"",
                 "rotation":0,
                 "type":"",
                 "visible":true,
                 "width":96,
                 "x":192,
                 "y":1152
                }, 
                {
                 "gid":1703,
                 "height":96,
                 "id":36,
                 "name":"",
                 "rotation":0,
                 "type":"",
                 "visible":true,
                 "width":96,
                 "x":0,
                 "y":480
                }],
         "opacity":1,
         "properties":
            {
             "display":"true",
             "top":"true"
            },
         "propertytypes":
            {
             "display":"string",
             "top":"string"
            },
         "type":"objectgroup",
         "visible":true,
         "width":30,
         "x":0,
         "y":0
        }],
 "nextobjectid":37,
 "orientation":"orthogonal",
 "renderorder":"right-down",
 "tileheight":96,
 "tilesets":[
        {
         "firstgid":1,
         "source":"tilesets\/tileset.json"
        }, 
        {
         "firstgid":1682,
         "source":"tilesets\/objects.json"
        }],
 "tilewidth":96,
 "version":1,
 "width":20
}